IM6R_9un-39597572

z6mBMcVo-03740982

p8LoHmZE-02505624

88NQDsQd-61790411
5wPcFzge-45328490

G50LsUpj-91333050

ya4DZgzf-33863592

wkCNC_fh-02360334

SI0T26KE-61352318

dhg5cJwf-15412994

mIREZ4JC-97021899

fQSNewCw-55237893

6A5LFqaj-24705651
Udl62czH-33543690
lERzNiHx-20995554

57UTey0l-80869515
B1EvaMF4-95156876

zkX_6BNz-26922671

Ww6XUj8B-18287837

LFMOrOe7-28031124

CkeA1AJX-69590800

eJBDV3SL-11211918

gKzbyeqK-72414152

VPT24Rn7-58374201
